%YAML 1.1
%TAG !u! tag:unity3d.com,2011:
--- !u!114 &11400000
MonoBehaviour:
  m_ObjectHideFlags: 0
  m_CorrespondingSourceObject: {fileID: 0}
  m_PrefabInstance: {fileID: 0}
  m_PrefabAsset: {fileID: 0}
  m_GameObject: {fileID: 0}
  m_Enabled: 1
  m_EditorHideFlags: 0
  m_Script: {fileID: 11500000, guid: f5a2543a119f842959d20e84db3140dd, type: 3}
  m_Name: ClaseBiologia_InventoryManager
  m_EditorClassIdentifier: 
  items:
  - label: Key
    id: 0
    altLabel: Llave
    carryOnStart: 0
    carryOnStartNotDefault: 0
    carryOnStartIDs: 00000000
    vars: []
    canCarryMultiple: 0
    count: 1
    canBeLowerCase: 0
    maxCount: 999
    itemStackingMode: 0
    tex: {fileID: 2800000, guid: f205b819413bc44008248734f652754e, type: 3}
    activeTex: {fileID: 2800000, guid: 0d1a9f7ec727545ed8db6f7df9286c89, type: 3}
    selectedTex: {fileID: 0}
    linkedPrefab: {fileID: 6362331949616522696, guid: 3fb5d998264c14db2b6dcba2e75a5b49, type: 3}
    cursorIcon:
      texture: {fileID: 0}
      isAnimated: 0
      numFrames: 1
      numRows: 1
      numCols: 1
      size: 0.04
      animSpeed: 4
      endAnimOnLastFrame: 0
      skipFirstFrameWhenLooping: 0
      clickOffset: {x: 0, y: 0}
      frameSpeeds: []
      alwaysAnimate: 0
      dontCycle: 0
      label: Icon 1
      lineID: -1
      id: 0
    lineID: -1
    useIconID: 0
    binID: -1
    overrideUseSyntax: 0
    hotspotPrefix1:
      label: Use
      lineID: -1
    hotspotPrefix2:
      label: on
      lineID: -1
    useActionList: {fileID: 0}
    lookActionList: {fileID: 0}
    interactions: []
    combineInteractions: []
    combineActionList: []
    combineID: 
    unhandledActionList: {fileID: 0}
    unhandledCombineActionList: {fileID: 0}
    carryOnStartID: -1
    useSeparateSlots: 0
    selectSingle: 0
    showInFilter: 1
  - label: Coin
    id: 1
    altLabel: Moneda
    carryOnStart: 0
    carryOnStartNotDefault: 0
    carryOnStartIDs: 00000000
    vars: []
    canCarryMultiple: 0
    count: 1
    canBeLowerCase: 1
    maxCount: 999
    itemStackingMode: 0
    tex: {fileID: 2800000, guid: 4738c8ae9e9a14076b2d8d26fc5427ba, type: 3}
    activeTex: {fileID: 0}
    selectedTex: {fileID: 0}
    linkedPrefab: {fileID: 919132149155446097, guid: 6fd0ebcef390242d3aa2f989eaa6347c, type: 3}
    cursorIcon:
      texture: {fileID: 0}
      isAnimated: 0
      numFrames: 1
      numRows: 1
      numCols: 1
      size: 0.04
      animSpeed: 4
      endAnimOnLastFrame: 0
      skipFirstFrameWhenLooping: 0
      clickOffset: {x: 0, y: 0}
      frameSpeeds: []
      alwaysAnimate: 0
      dontCycle: 0
      label: Icon 1
      lineID: -1
      id: 0
    lineID: -1
    useIconID: 0
    binID: -1
    overrideUseSyntax: 0
    hotspotPrefix1:
      label: Use
      lineID: -1
    hotspotPrefix2:
      label: on
      lineID: -1
    useActionList: {fileID: 0}
    lookActionList: {fileID: 0}
    interactions: []
    combineInteractions: []
    combineActionList: []
    combineID: 
    unhandledActionList: {fileID: 0}
    unhandledCombineActionList: {fileID: 0}
    carryOnStartID: -1
    useSeparateSlots: 0
    selectSingle: 0
    showInFilter: 1
  - label: Cafe
    id: 2
    altLabel: "Caf\xE9"
    carryOnStart: 0
    carryOnStartNotDefault: 0
    carryOnStartIDs: 00000000
    vars: []
    canCarryMultiple: 0
    count: 1
    canBeLowerCase: 1
    maxCount: 999
    itemStackingMode: 0
    tex: {fileID: 2800000, guid: 47228453456b646aa9c85223888aa3ae, type: 3}
    activeTex: {fileID: 0}
    selectedTex: {fileID: 0}
    linkedPrefab: {fileID: 1077087722999410117, guid: 60a0fb223c8de48a2bfddc0c053a95e4, type: 3}
    cursorIcon:
      texture: {fileID: 0}
      isAnimated: 0
      numFrames: 1
      numRows: 1
      numCols: 1
      size: 0.04
      animSpeed: 4
      endAnimOnLastFrame: 0
      skipFirstFrameWhenLooping: 0
      clickOffset: {x: 0, y: 0}
      frameSpeeds: []
      alwaysAnimate: 0
      dontCycle: 0
      label: Icon 1
      lineID: -1
      id: 0
    lineID: -1
    useIconID: 0
    binID: -1
    overrideUseSyntax: 0
    hotspotPrefix1:
      label: Use
      lineID: -1
    hotspotPrefix2:
      label: on
      lineID: -1
    useActionList: {fileID: 0}
    lookActionList: {fileID: 0}
    interactions: []
    combineInteractions: []
    combineActionList: []
    combineID: 
    unhandledActionList: {fileID: 0}
    unhandledCombineActionList: {fileID: 0}
    carryOnStartID: -1
    useSeparateSlots: 0
    selectSingle: 0
    showInFilter: 1
  - label: Gafas
    id: 3
    altLabel: Gafas
    carryOnStart: 1
    carryOnStartNotDefault: 0
    carryOnStartIDs: 00000000
    vars: []
    canCarryMultiple: 0
    count: 1
    canBeLowerCase: 1
    maxCount: 999
    itemStackingMode: 0
    tex: {fileID: 2800000, guid: c13cc4a46cfe24e8793ee33f0067671b, type: 3}
    activeTex: {fileID: 0}
    selectedTex: {fileID: 0}
    linkedPrefab: {fileID: 919132149155446097, guid: d6e55675723544948b3805f1cc32c77d, type: 3}
    cursorIcon:
      texture: {fileID: 0}
      isAnimated: 0
      numFrames: 1
      numRows: 1
      numCols: 1
      size: 0.04
      animSpeed: 4
      endAnimOnLastFrame: 0
      skipFirstFrameWhenLooping: 0
      clickOffset: {x: 0, y: 0}
      frameSpeeds: []
      alwaysAnimate: 0
      dontCycle: 0
      label: Icon 1
      lineID: -1
      id: 0
    lineID: -1
    useIconID: 0
    binID: -1
    overrideUseSyntax: 0
    hotspotPrefix1:
      label: Use
      lineID: -1
    hotspotPrefix2:
      label: on
      lineID: -1
    useActionList: {fileID: 0}
    lookActionList: {fileID: 0}
    interactions: []
    combineInteractions: []
    combineActionList: []
    combineID: 
    unhandledActionList: {fileID: 0}
    unhandledCombineActionList: {fileID: 0}
    carryOnStartID: -1
    useSeparateSlots: 0
    selectSingle: 0
    showInFilter: 1
  bins: []
  invVars: []
  unhandledCombine: {fileID: 0}
  unhandledHotspot: {fileID: 0}
  passUnhandledHotspotAsParameter: 0
  unhandledGive: {fileID: 0}
  recipes: []
  documents: []
  objectives: []
