%YAML 1.1
%TAG !u! tag:unity3d.com,2011:
--- !u!114 &11400000
MonoBehaviour:
  m_ObjectHideFlags: 0
  m_CorrespondingSourceObject: {fileID: 0}
  m_PrefabInstance: {fileID: 0}
  m_PrefabAsset: {fileID: 0}
  m_GameObject: {fileID: 0}
  m_Enabled: 1
  m_EditorHideFlags: 0
  m_Script: {fileID: 11500000, guid: 3cc1f751990d444ef9e1381090933b8b, type: 3}
  m_Name: DeselectInventory
  m_EditorClassIdentifier: 
  actions:
  - {fileID: 3617295485818224248}
  isSkippable: 1
  actionListType: 0
  unfreezePauseMenus: 1
  useParameters: 0
  canRunMultipleInstances: 0
  canSurviveSceneChanges: 0
  revertToDefaultParametersAfterRunning: 0
  parameters: []
  tagID: 0
  backupData: []
--- !u!114 &3617295485818224248
MonoBehaviour:
  m_ObjectHideFlags: 1
  m_CorrespondingSourceObject: {fileID: 0}
  m_PrefabInstance: {fileID: 0}
  m_PrefabAsset: {fileID: 0}
  m_GameObject: {fileID: 0}
  m_Enabled: 1
  m_EditorHideFlags: 0
  m_Script: {fileID: 11500000, guid: 5a0475eee84cf46969967016cad60b1a, type: 3}
  m_Name: 
  m_EditorClassIdentifier: 
  id: 0
  isDisplayed: 1
  showComment: 0
  comment: 
  willWait: 0
  endAction: 0
  skipAction: -1
  skipActionActual: {fileID: 0}
  linkedCutscene: {fileID: 0}
  linkedAsset: {fileID: 0}
  endings: []
  isEnabled: 1
  isAssetFile: 1
  isBreakPoint: 0
  nodeRect:
    serializedVersion: 2
    x: 0
    y: 0
    width: 300
    height: 60
  overrideColor: {r: 1, g: 1, b: 1, a: 1}
  showOutputSockets: 1
  parentActionListInEditor: {fileID: 0}
  selectType: 1
  selectItemMode: 0
  carryCondition: 0
  giveToPlayer: 0
  setAmount: 0
  amountParameterID: -1
  amount: 1
  parameterID: -1
  invID: 0
